cuarto.csv

Record Length,2500,Points,0.0,0.0,
Sample Interval,4.00000019E-3,s,4.00000019E-3,0.0,
Trigger Point,0.0,Samples,8.000000380E-3,79.999998212E-3,
,,,12.0000001E-3,0.0,
,,,16.0000008E-3,79.999998212E-3,
,,,20.0000014E-3,79.999998212E-3,
Source,CH1,,24.00000021E-3,0.0,
Vertical Units,Volts,,28.00000086E-3,0.0,
Vertical Scale,2.0000000,,32.00000152E-3,0.0,
Vertical Offset,0,,36.00000218E-3,0.0,
Horizontal Units,s,,40.00000283E-3,0.0,
Horizontal Scale,1.0000000,,44.00000349E-3,0.0,
Pt Fmt,Y,,48.00000042E-3,0.0,
Yzero,0.0,,52.00000107E-3,0.0,
Probe Atten,1.000000,,56.000001729E-3,0.0,
,,,60.000002384E-3,0.0,
Note,TBS 1102B-EDU - 6:57:56 p. m.   29/02/2024,,64.000003040E-3,0.0,
,,,68.000003695E-3,79.999998212E-3,
,,,72.000004351E-3,0.0,
,,,76.000005007E-3,0.0,
,,,80.000005662E-3,0.0,
,,,84.000006318E-3,79.999998212E-3,
,,,88.000006974E-3,79.999998212E-3,
,,,92.000007629E-3,79.999998212E-3,
,,,96.000000834E-3,79.999998212E-3,
,,,100.0000015E-3,0.0,
,,,104.0000021E-3,0.0,
,,,108.0000028E-3,0.0,
,,,112.0000035E-3,0.0,
,,,116.0000041E-3,0.0,
,,,120.0000048E-3,0.0,
,,,124.0000054E-3,79.999998212E-3,
,,,128.0000061E-3,79.999998212E-3,
,,,131.9999993E-3,0.0,
,,,136.0000074E-3,0.0,
,,,140.0000006E-3,0.0,
,,,144.0000087E-3,79.999998212E-3,
,,,148.0000019E-3,79.999998212E-3,
,,,152.00001001E-3,0.0,
,,,156.00000322E-3,79.999998212E-3,
,,,160.00001132E-3,0.0,
,,,164.00000453E-3,0.0,
,,,168.00001264E-3,79.999998212E-3,
,,,172.00000584E-3,0.0,
,,,176.00001395E-3,79.999998212E-3,
,,,180.00000715E-3,0.0,
,,,184.00001526E-3,0.0,
,,,188.00000846E-3,0.0,
,,,192.00000167E-3,0.0,
,,,196.00000978E-3,0.0,
,,,200.00000298E-3,0.0,
,,,204.00001109E-3,0.0,
,,,208.00000429E-3,0.0,
,,,212.00001240E-3,0.0,
,,,216.00000560E-3,0.0,
,,,220.00001371E-3,79.999998212E-3,
,,,224.00000691E-3,0.0,
,,,228.00001502E-3,0.0,
,,,232.00000823E-3,0.0,
,,,236.00001633E-3,0.0,
,,,240.00000954E-3,79.999998212E-3,
,,,244.00001764E-3,79.999998212E-3,
,,,248.00001085E-3,0.0,
,,,252.00000405E-3,0.0,
,,,256.00001216E-3,0.0,
,,,260.00002027E-3,0.0,
,,,263.99999857E-3,0.0,
,,,268.00000668E-3,0.0,
,,,272.00001478E-3,0.0,
,,,276.00002289E-3,0.0,
,,,280.00000119E-3,0.0,
,,,284.00000930E-3,0.0,
,,,288.00001740E-3,0.0,
,,,292.00002551E-3,0.0,
,,,296.00000381E-3,79.999998212E-3,
,,,300.00001192E-3,79.999998212E-3,
,,,304.00002003E-3,0.0,
,,,308.00002813E-3,0.0,
,,,312.00000644E-3,0.0,
,,,316.00001454E-3,0.0,
,,,320.00002265E-3,0.0,
,,,324.00000095E-3,79.999998212E-3,
,,,328.00000906E-3,79.999998212E-3,
,,,332.00001717E-3,79.999998212E-3,
,,,336.00002527E-3,0.0,
,,,340.00000358E-3,79.999998212E-3,
,,,344.00001168E-3,0.0,
,,,348.00001979E-3,0.0,
,,,352.00002789E-3,79.999998212E-3,
,,,356.00000620E-3,0.0,
,,,360.00001431E-3,0.0,
,,,364.00002241E-3,0.0,
,,,368.00003052E-3,79.999998212E-3,
,,,372.00000882E-3,79.999998212E-3,
,,,376.00001693E-3,0.0,
,,,380.00002503E-3,0.0,
,,,384.00000334E-3,0.0,
,,,388.00001144E-3,79.999998212E-3,
,,,392.00001955E-3,0.0,
,,,396.00002766E-3,79.999998212E-3,
,,,400.00000596E-3,0.0,
,,,404.000014067E-3,0.0,
,,,408.000022173E-3,0.0,
,,,412.000030279E-3,0.0,
,,,416.000008583E-3,79.999998212E-3,
,,,420.000016689E-3,79.999998212E-3,
,,,424.000024796E-3,79.999998212E-3,
,,,428.000032902E-3,0.0,
,,,432.000011206E-3,0.0,
,,,436.000019312E-3,0.0,
,,,440.000027418E-3,0.0,
,,,444.000035524E-3,0.0,
,,,448.000013828E-3,0.0,
,,,452.000021935E-3,79.999998212E-3,
,,,456.000030041E-3,0.0,
,,,460.000008345E-3,0.0,
,,,464.000016451E-3,0.0,
,,,468.000024557E-3,79.999998212E-3,
,,,472.000032663E-3,0.0,
,,,476.000010967E-3,0.0,
,,,480.000019073E-3,79.999998212E-3,
,,,484.000027180E-3,0.0,
,,,488.000035286E-3,0.0,
,,,492.000013590E-3,0.0,
,,,496.000021696E-3,0.0,
,,,500.000000000E-3,0.0,
,,,504.000008106E-3,0.0,
,,,508.000016212E-3,0.0,
,,,512.000024319E-3,79.999998212E-3,
,,,516.000032425E-3,0.0,
,,,520.000040531E-3,0.0,
,,,524.000048637E-3,0.0,
,,,527.999997139E-3,0.0,
,,,532.000005245E-3,0.0,
,,,536.000013351E-3,0.0,
,,,540.000021458E-3,0.0,
,,,544.000029564E-3,0.0,
,,,548.000037670E-3,0.0,
,,,552.000045776E-3,0.0,
,,,556.000053883E-3,79.999998212E-3,
,,,560.000002384E-3,0.0,
,,,564.000010490E-3,79.999998212E-3,
,,,568.000018597E-3,0.0,
,,,572.000026703E-3,0.0,
,,,576.000034809E-3,0.0,
,,,580.000042915E-3,0.0,
,,,584.000051022E-3,0.0,
,,,587.999999523E-3,0.0,
,,,592.000007629E-3,0.0,
,,,596.000015736E-3,0.0,
,,,600.000023842E-3,0.0,
,,,604.000031948E-3,79.999998212E-3,
,,,608.000040054E-3,0.0,
,,,612.000048161E-3,0.0,
,,,616.000056267E-3,0.0,
,,,620.000004768E-3,0.0,
,,,624.000012875E-3,0.0,
,,,628.000020981E-3,79.999998212E-3,
,,,632.000029087E-3,79.999998212E-3,
,,,636.000037193E-3,0.0,
,,,640.000045300E-3,79.999998212E-3,
,,,644.000053406E-3,0.0,
,,,648.000001907E-3,0.0,
,,,652.000010014E-3,0.0,
,,,656.000018120E-3,0.0,
,,,660.000026226E-3,0.0,
,,,664.000034332E-3,0.0,
,,,668.000042439E-3,0.0,
,,,672.000050545E-3,0.0,
,,,676.000058651E-3,79.999998212E-3,
,,,680.000007153E-3,79.999998212E-3,
,,,684.000015259E-3,79.999998212E-3,
,,,688.000023365E-3,0.0,
,,,692.000031471E-3,0.0,
,,,696.000039577E-3,0.0,
,,,700.000047684E-3,0.0,
,,,704.000055790E-3,79.999998212E-3,
,,,708.000004292E-3,0.0,
,,,712.000012398E-3,0.0,
,,,716.000020504E-3,0.0,
,,,720.000028610E-3,0.0,
,,,724.000036716E-3,0.0,
,,,728.000044823E-3,0.0,
,,,732.000052929E-3,0.0,
,,,736.000061035E-3,0.0,
,,,740.000009537E-3,0.0,
,,,744.000017643E-3,0.0,
,,,748.000025749E-3,0.0,
,,,752.000033855E-3,79.999998212E-3,
,,,756.000041962E-3,79.999998212E-3,
,,,760.000050068E-3,0.0,
,,,764.000058174E-3,0.0,
,,,768.000006676E-3,0.0,
,,,772.000014782E-3,0.0,
,,,776.000022888E-3,79.999998212E-3,
,,,780.000030994E-3,0.0,
,,,784.000039101E-3,0.0,
,,,788.000047207E-3,0.0,
,,,792.000055313E-3,79.999998212E-3,
,,,796.000063419E-3,0.0,
,,,800.000011921E-3,0.0,
,,,804.000020027E-3,0.0,
,,,808.000028133E-3,79.999998212E-3,
,,,812.000036240E-3,0.0,
,,,816.000044346E-3,79.999998212E-3,
,,,820.000052452E-3,0.0,
,,,824.000060558E-3,0.0,
,,,828.000068665E-3,79.999998212E-3,
,,,832.000017166E-3,0.0,
,,,836.000025272E-3,0.0,
,,,840.000033379E-3,0.0,
,,,844.000041485E-3,0.0,
,,,848.000049591E-3,0.0,
,,,852.000057697E-3,0.0,
,,,856.000065804E-3,0.0,
,,,860.000014305E-3,0.0,
,,,864.000022411E-3,0.0,
,,,868.000030518E-3,79.999998212E-3,
,,,872.000038624E-3,0.0,
,,,876.000046730E-3,0.0,
,,,880.000054836E-3,0.0,
,,,884.000062943E-3,79.999998212E-3,
,,,888.000071049E-3,0.0,
,,,892.000019550E-3,0.0,
,,,896.000027657E-3,0.0,
,,,900.000035763E-3,0.0,
,,,904.000043869E-3,0.0,
,,,908.000051975E-3,0.0,
,,,912.000060081E-3,0.0,
,,,916.000068188E-3,0.0,
,,,920.000016689E-3,0.0,
,,,924.000024796E-3,0.0,
,,,928.000032902E-3,79.999998212E-3,
,,,932.000041008E-3,0.0,
,,,936.000049114E-3,79.999998212E-3,
,,,940.000057220E-3,0.0,
,,,944.000065327E-3,0.0,
,,,948.000073433E-3,0.0,
,,,952.000021935E-3,0.0,
,,,956.000030041E-3,0.0,
,,,960.000038147E-3,0.0,
,,,964.000046253E-3,0.0,
,,,968.000054359E-3,0.0,
,,,972.000062466E-3,0.0,
,,,976.000070572E-3,0.0,
,,,980.000019073E-3,0.0,
,,,984.000027180E-3,0.0,
,,,988.000035286E-3,0.0,
,,,992.000043392E-3,79.999998212E-3,
,,,996.000051498E-3,0.0,
,,,1.000000,79.999998212E-3,
,,,1.0040001,0.0,
,,,1.0080000,0.0,
,,,1.0120001,0.0,
,,,1.0160000,0.0,
,,,1.0200001,79.999998212E-3,
,,,1.0240000,79.999998212E-3,
,,,1.0280000,0.0,
,,,1.0320001,0.0,
,,,1.0360000,0.0,
,,,1.0400001,0.0,
,,,1.0440000,0.0,
,,,1.0480001,0.0,
,,,1.0520000,0.0,
,,,1.0560000,0.0,
,,,1.0600001,0.0,
,,,1.0640000,0.0,
,,,1.0680001,0.0,
,,,1.0720000,0.0,
,,,1.0760001,0.0,
,,,1.0800000,0.0,
,,,1.0840001,0.0,
,,,1.0880001,0.0,
,,,1.0920000,0.0,
,,,1.0960001,0.0,
,,,1.1000000,0.0,
,,,1.1040001,0.0,
,,,1.1080000,0.0,
,,,1.1120001,0.0,
,,,1.1160001,79.999998212E-3,
,,,1.1200000,0.0,
,,,1.1240001,0.0,
,,,1.1280000,0.0,
,,,1.1320001,79.999998212E-3,
,,,1.1360000,0.0,
,,,1.1400001,0.0,
,,,1.1440001,0.0,
,,,1.1480000,79.999998212E-3,
,,,1.1520001,0.0,
,,,1.1560000,0.0,
,,,1.1600001,0.0,
,,,1.1640000,0.0,
,,,1.1680001,0.0,
,,,1.1720001,79.999998212E-3,
,,,1.1760000,0.0,
,,,1.1800001,79.999998212E-3,
,,,1.1840000,79.999998212E-3,
,,,1.1880001,0.0,
,,,1.1920000,0.0,
,,,1.1960001,0.0,
,,,1.2000000,0.0,
,,,1.2040001,0.0,
,,,1.2080001,79.999998212E-3,
,,,1.2120000,0.0,
,,,1.2160001,0.0,
,,,1.2200000,0.0,
,,,1.2240001,0.0,
,,,1.2280000,0.0,
,,,1.2320001,0.0,
,,,1.2360001,0.0,
,,,1.2400000,0.0,
,,,1.2440001,79.999998212E-3,
,,,1.2480000,0.0,
,,,1.2520001,0.0,
,,,1.2560000,79.999998212E-3,
,,,1.2600001,0.0,
,,,1.2640001,79.999998212E-3,
,,,1.2680000,0.0,
,,,1.2720001,0.0,
,,,1.2760000,0.0,
,,,1.2800001,0.0,
,,,1.2840000,0.0,
,,,1.2880001,0.0,
,,,1.2920001,0.0,
,,,1.2960000,0.0,
,,,1.3000001,0.0,
,,,1.3040000,0.0,
,,,1.3080001,0.0,
,,,1.3120000,0.0,
,,,1.3160001,79.999998212E-3,
,,,1.3200001,79.999998212E-3,
,,,1.3240001,0.0,
,,,1.3280001,79.999998212E-3,
,,,1.3320000,79.999998212E-3,
,,,1.3360001,79.999998212E-3,
,,,1.3400000,79.999998212E-3,
,,,1.3440001,79.999998212E-3,
,,,1.3480000,79.999998212E-3,
,,,1.3520001,79.999998212E-3,
,,,1.3560001,159.99999642E-3,
,,,1.3600000,79.999998212E-3,
,,,1.3640001,79.999998212E-3,
,,,1.3680000,159.99999642E-3,
,,,1.3720001,159.99999642E-3,
,,,1.3760000,159.99999642E-3,
,,,1.3800001,159.99999642E-3,
,,,1.3840001,159.99999642E-3,
,,,1.3880000,239.99999464E-3,
,,,1.3920001,159.99999642E-3,
,,,1.3960000,239.99999464E-3,
,,,1.4000001,239.99999464E-3,
,,,1.4040000,239.99999464E-3,
,,,1.4080001,239.99999464E-3,
,,,1.4120001,239.99999464E-3,
,,,1.4160000,319.99999285E-3,
,,,1.4200001,319.99999285E-3,
,,,1.4240000,319.99999285E-3,
,,,1.4280001,319.99999285E-3,
,,,1.4320000,319.99999285E-3,
,,,1.4360001,319.99999285E-3,
,,,1.4400001,319.99999285E-3,
,,,1.4440001,319.99999285E-3,
,,,1.4480001,399.99997616E-3,
,,,1.4520000,399.99997616E-3,
,,,1.4560001,399.99997616E-3,
,,,1.4600000,479.999989271E-3,
,,,1.4640001,479.999989271E-3,
,,,1.4680001,479.999989271E-3,
,,,1.4720001,479.999989271E-3,
,,,1.4760001,479.999989271E-3,
,,,1.4800000,479.999989271E-3,
,,,1.4840001,479.999989271E-3,
,,,1.4880000,560.000002384E-3,
,,,1.4920001,479.999989271E-3,
,,,1.4960001,560.000002384E-3,
,,,1.5000001,560.000002384E-3,
,,,1.5040001,560.000002384E-3,
,,,1.5080000,639.999985695E-3,
,,,1.5120001,639.999985695E-3,
,,,1.5160000,639.999985695E-3,
,,,1.5200001,719.999969006E-3,
,,,1.5240000,719.999969006E-3,
,,,1.5280001,719.999969006E-3,
,,,1.5320001,639.999985695E-3,
,,,1.5360000,719.999969006E-3,
,,,1.5400001,719.999969006E-3,
,,,1.5440000,719.999969006E-3,
,,,1.5480001,719.999969006E-3,
,,,1.5520000,719.999969006E-3,
,,,1.5560001,799.999952316E-3,
,,,1.5600001,799.999952316E-3,
,,,1.5640001,799.999952316E-3,
,,,1.5680001,799.999952316E-3,
,,,1.5720000,799.999952316E-3,
,,,1.5760001,799.999952316E-3,
,,,1.5800000,799.999952316E-3,
,,,1.5840001,799.999952316E-3,
,,,1.5880001,879.999995232E-3,
,,,1.5920001,879.999995232E-3,
,,,1.5960001,879.999995232E-3,
,,,1.6000000,879.999995232E-3,
,,,1.6040001,879.999995232E-3,
,,,1.6080000,879.999995232E-3,
,,,1.6120001,879.999995232E-3,
,,,1.6160001,959.999978542E-3,
,,,1.6200001,959.999978542E-3,
,,,1.6240001,959.999978542E-3,
,,,1.6280000,959.999978542E-3,
,,,1.6320001,959.999978542E-3,
,,,1.6360000,959.999978542E-3,
,,,1.6400001,959.999978542E-3,
,,,1.6440001,959.999978542E-3,
,,,1.6480001,1.0400000,
,,,1.6520001,1.0400000,
,,,1.6560001,1.0400000,
,,,1.6600001,1.0400000,
,,,1.6640000,1.0400000,
,,,1.6680001,1.0400000,
,,,1.6720001,1.0400000,
,,,1.6760001,1.0400000,
,,,1.6800001,1.0400000,
,,,1.6840001,1.1200000,
,,,1.6880001,1.0400000,
,,,1.6920000,1.1200000,
,,,1.6960001,1.1200000,
,,,1.7000000,1.1200000,
,,,1.7040001,1.1200000,
,,,1.7080001,1.1200000,
,,,1.7120001,1.1200000,
,,,1.7160001,1.1999999,
,,,1.7200000,1.1999999,
,,,1.7240001,1.1999999,
,,,1.7280000,1.1200000,
,,,1.7320001,1.1999999,
,,,1.7360001,1.1999999,
,,,1.7400001,1.1999999,
,,,1.7440001,1.1200000,
,,,1.7480000,1.1999999,
,,,1.7520001,1.1999999,
,,,1.7560000,1.1999999,
,,,1.7600001,1.1999999,
,,,1.7640001,1.1999999,
,,,1.7680001,1.1999999,
,,,1.7720001,1.1999999,
,,,1.7760001,1.2800000,
,,,1.7800001,1.2800000,
,,,1.7840000,1.2800000,
,,,1.7880001,1.2800000,
,,,1.7920001,1.1999999,
,,,1.7960001,1.2800000,
,,,1.8000001,1.2800000,
,,,1.8040001,1.2800000,
,,,1.8080001,1.2800000,
,,,1.8120000,1.2800000,
,,,1.8160001,1.2800000,
,,,1.8200001,1.2800000,
,,,1.8240001,1.2800000,
,,,1.8280001,1.2800000,
,,,1.8320001,1.2800000,
,,,1.8360001,1.2800000,
,,,1.8400000,1.3600000,
,,,1.8440001,1.2800000,
,,,1.8480000,1.2800000,
,,,1.8520001,1.2800000,
,,,1.8560001,1.3600000,
,,,1.8600001,1.2800000,
,,,1.8640001,1.2800000,
,,,1.8680000,1.3600000,
,,,1.8720001,1.3600000,
,,,1.8760000,1.2800000,
,,,1.8800001,1.2800000,
,,,1.8840001,1.3600000,
,,,1.8880001,1.2800000,
,,,1.8920001,1.2800000,
,,,1.8960001,1.3600000,
,,,1.9000001,1.3600000,
,,,1.9040000,1.3600000,
,,,1.9080001,1.3600000,
,,,1.9120001,1.3600000,
,,,1.9160001,1.2800000,
,,,1.9200001,1.3600000,
,,,1.9240001,1.3600000,
,,,1.9280001,1.2800000,
,,,1.9320000,1.2800000,
,,,1.9360001,1.3600000,
,,,1.9400001,1.2800000,
,,,1.9440001,1.3600000,
,,,1.9480001,1.3600000,
,,,1.9520001,1.3600000,
,,,1.9560001,1.3600000,
,,,1.9600000,1.3600000,
,,,1.9640001,1.3600000,
,,,1.9680001,1.2800000,
,,,1.9720001,1.2800000,
,,,1.9760001,1.3600000,
,,,1.9800001,1.3600000,
,,,1.9840001,1.2800000,
,,,1.9880000,1.3600000,
,,,1.9920001,1.2800000,
,,,1.9960001,1.3600000,
,,,2.0000000,1.3600000,
,,,2.0040002,1.3600000,
,,,2.0080001,1.3600000,
,,,2.0120001,1.3600000,
,,,2.0160000,1.3600000,
,,,2.0200000,1.3600000,
,,,2.0240002,1.3600000,
,,,2.0280001,1.3600000,
,,,2.0320001,1.2800000,
,,,2.0360000,1.3600000,
,,,2.0400002,1.2800000,
,,,2.0440001,1.2800000,
,,,2.0480001,1.3600000,
,,,2.0520000,1.3600000,
,,,2.0560000,1.3600000,
,,,2.0600002,1.3600000,
,,,2.0640001,1.3600000,
,,,2.0680001,1.2800000,
,,,2.0720000,1.3600000,
,,,2.0760002,1.3600000,
,,,2.0800002,1.3600000,
,,,2.0840001,1.2800000,
,,,2.0880001,1.3600000,
,,,2.0920000,1.3600000,
,,,2.0960002,1.2800000,
,,,2.1000001,1.3600000,
,,,2.1040001,1.3600000,
,,,2.1080000,1.3600000,
,,,2.1120000,1.3600000,
,,,2.1160002,1.3600000,
,,,2.1200001,1.3600000,
,,,2.1240001,1.3600000,
,,,2.1280000,1.3600000,
,,,2.1320002,1.3600000,
,,,2.1360002,1.2800000,
,,,2.1400001,1.3600000,
,,,2.1440001,1.3600000,
,,,2.1480000,1.3600000,
,,,2.1520002,1.2800000,
,,,2.1560001,1.2800000,
,,,2.1600001,1.3600000,
,,,2.1640000,1.2800000,
,,,2.1680002,1.3600000,
,,,2.1720002,1.3600000,
,,,2.1760001,1.3600000,
,,,2.1800001,1.2800000,
,,,2.1840000,1.2800000,
,,,2.1880002,1.3600000,
,,,2.1920002,1.2800000,
,,,2.1960001,1.2800000,
,,,2.2000000,1.2800000,
,,,2.2040000,1.2800000,
,,,2.2080002,1.2800000,
,,,2.2120001,1.2800000,
,,,2.2160001,1.3600000,
,,,2.2200000,1.2800000,
,,,2.2240002,1.2800000,
,,,2.2280002,1.3600000,
,,,2.2320001,1.3600000,
,,,2.2360001,1.3600000,
,,,2.2400000,1.3600000,
,,,2.2440002,1.3600000,
,,,2.2480001,1.3600000,
,,,2.2520001,1.2800000,
,,,2.2560000,1.3600000,
,,,2.2600000,1.2800000,
,,,2.2640002,1.2800000,
,,,2.2680001,1.2800000,
,,,2.2720001,1.2800000,
,,,2.2760000,1.3600000,
,,,2.2800002,1.3600000,
,,,2.2840002,1.2800000,
,,,2.2880001,1.3600000,
,,,2.2920001,1.3600000,
,,,2.2960000,1.2800000,
,,,2.3000002,1.2800000,
,,,2.3040001,1.2800000,
,,,2.3080001,1.2800000,
,,,2.3120000,1.2800000,
,,,2.3160002,1.2800000,
,,,2.3200002,1.2800000,
,,,2.3240001,1.3600000,
,,,2.3280001,1.2800000,
,,,2.3320000,1.2800000,
,,,2.3360002,1.2800000,
,,,2.3400002,1.2800000,
,,,2.3440001,1.3600000,
,,,2.3480000,1.2800000,
,,,2.3520000,1.3600000,
,,,2.3560002,1.2800000,
,,,2.3600001,1.2800000,
,,,2.3640001,1.2800000,
,,,2.3680000,1.2800000,
,,,2.3720002,1.2800000,
,,,2.3760002,1.2800000,
,,,2.3800001,1.2800000,
,,,2.3840001,1.2800000,
,,,2.3880000,1.2800000,
,,,2.3920002,1.2800000,
,,,2.3960001,1.2800000,
,,,2.4000001,1.2800000,
,,,2.4040000,1.2800000,
,,,2.4080002,1.2800000,
,,,2.4120002,1.2800000,
,,,2.4160001,1.2800000,
,,,2.4200001,1.2800000,
,,,2.4240000,1.2800000,
,,,2.4280002,1.2800000,
,,,2.4320002,1.2800000,
,,,2.4360001,1.2800000,
,,,2.4400001,1.2800000,
,,,2.4440000,1.2800000,
,,,2.4480002,1.3600000,
,,,2.4520001,1.2800000,
,,,2.4560001,1.2800000,
,,,2.4600000,1.2800000,
,,,2.4640002,1.2800000,
,,,2.4680002,1.2800000,
,,,2.4720001,1.2800000,
,,,2.4760001,1.2800000,
,,,2.4800000,1.2800000,
,,,2.4840002,1.2800000,
,,,2.4880002,1.3600000,
,,,2.4920001,1.2800000,
,,,2.4960001,1.2800000,
,,,2.5000000,1.3600000,
,,,2.5040002,1.2800000,
,,,2.5080001,1.2800000,
,,,2.5120001,1.2800000,
,,,2.5160000,1.2800000,
,,,2.5200002,1.3600000,
,,,2.5240002,1.2800000,
,,,2.5280001,1.2800000,
,,,2.5320001,1.2800000,
,,,2.5360000,1.2800000,
,,,2.5400002,1.2800000,
,,,2.5440001,1.2800000,
,,,2.5480001,1.2800000,
,,,2.5520000,1.2800000,
,,,2.5560002,1.3600000,
,,,2.5600002,1.2800000,
,,,2.5640001,1.2800000,
,,,2.5680001,1.2800000,
,,,2.5720000,1.2800000,
,,,2.5760002,1.2800000,
,,,2.5800002,1.2800000,
,,,2.5840001,1.2800000,
,,,2.5880001,1.2800000,
,,,2.5920000,1.2800000,
,,,2.5960002,1.2800000,
,,,2.6000001,1.2800000,
,,,2.6040001,1.3600000,
,,,2.6080000,1.2800000,
,,,2.6120002,1.2800000,
,,,2.6160002,1.2800000,
,,,2.6200001,1.2800000,
,,,2.6240001,1.2800000,
,,,2.6280000,1.2800000,
,,,2.6320002,1.2800000,
,,,2.6360002,1.2800000,
,,,2.6400001,1.2800000,
,,,2.6440001,1.2800000,
,,,2.6480002,1.2800000,
,,,2.6520002,1.2800000,
,,,2.6560001,1.2800000,
,,,2.6600001,1.2800000,
,,,2.6640000,1.3600000,
,,,2.6680002,1.2800000,
,,,2.6720002,1.2800000,
,,,2.6760001,1.2800000,
,,,2.6800001,1.2800000,
,,,2.6840000,1.2800000,
,,,2.6880002,1.2800000,
,,,2.6920002,1.3600000,
,,,2.6960001,1.2800000,
,,,2.7000000,1.2800000,
,,,2.7040002,1.2800000,
,,,2.7080002,1.2800000,
,,,2.7120001,1.3600000,
,,,2.7160001,1.3600000,
,,,2.72000003,1.2800000,
,,,2.72400022,1.2800000,
,,,2.72800016,1.2800000,
,,,2.73200011,1.2800000,
,,,2.73600006,1.2800000,
,,,2.74000025,1.2800000,
,,,2.74400020,1.2800000,
,,,2.74800014,1.2800000,
,,,2.75200009,1.2800000,
,,,2.75600004,1.2800000,
,,,2.76000023,1.3600000,
,,,2.76400018,1.2800000,
,,,2.76800013,1.2800000,
,,,2.77200007,1.2800000,
,,,2.77600002,1.2800000,
,,,2.78000021,1.2800000,
,,,2.78400016,1.3600000,
,,,2.78800011,1.2800000,
,,,2.79200006,1.2800000,
,,,2.79600024,1.2800000,
,,,2.80000019,1.2800000,
,,,2.80400014,1.2800000,
,,,2.80800009,1.2800000,
,,,2.81200004,1.2800000,
,,,2.81600022,1.2800000,
,,,2.82000017,1.2800000,
,,,2.82400012,1.2800000,
,,,2.82800007,1.2800000,
,,,2.83200002,1.2800000,
,,,2.83600020,1.3600000,
,,,2.84000015,1.2800000,
,,,2.84400010,1.2800000,
,,,2.84800005,1.2800000,
,,,2.85200024,1.2800000,
,,,2.85600019,1.2800000,
,,,2.86000013,1.2800000,
,,,2.86400008,1.2800000,
,,,2.86800003,1.2800000,
,,,2.87200022,1.2800000,
,,,2.87600017,1.2800000,
,,,2.88000011,1.2800000,
,,,2.88400006,1.1999999,
,,,2.88800025,1.2800000,
,,,2.89200020,1.2800000,
,,,2.89600015,1.3600000,
,,,2.90000010,1.2800000,
,,,2.90400004,1.2800000,
,,,2.90800023,1.3600000,
,,,2.91200018,1.2800000,
,,,2.91600013,1.2800000,
,,,2.92000008,1.2800000,
,,,2.92400002,1.2800000,
,,,2.92800021,1.2800000,
,,,2.93200016,1.2800000,
,,,2.93600011,1.2800000,
,,,2.94000006,1.2800000,
,,,2.94400024,1.2800000,
,,,2.94800019,1.2800000,
,,,2.95200014,1.2800000,
,,,2.95600009,1.2800000,
,,,2.96000004,1.2800000,
,,,2.96400023,1.2800000,
,,,2.96800017,1.2800000,
,,,2.97200012,1.2800000,
,,,2.97600007,1.2800000,
,,,2.98000026,1.2800000,
,,,2.98400021,1.2800000,
,,,2.98800015,1.2800000,
,,,2.99200010,1.2800000,
,,,2.99600005,1.2800000,
,,,3.00000024,1.3600000,
,,,3.00400019,1.2800000,
,,,3.00800014,1.2800000,
,,,3.01200008,1.3600000,
,,,3.01600003,1.2800000,
,,,3.02000022,1.2800000,
,,,3.02400017,1.2800000,
,,,3.02800012,1.2800000,
,,,3.03200006,1.2800000,
,,,3.03600025,1.2800000,
,,,3.04000020,1.2800000,
,,,3.04400015,1.2800000,
,,,3.04800010,1.2800000,
,,,3.05200005,1.3600000,
,,,3.05600023,1.2800000,
,,,3.06000018,1.2800000,
,,,3.06400013,1.2800000,
,,,3.06800008,1.2800000,
,,,3.07200003,1.2800000,
,,,3.07600021,1.2800000,
,,,3.08000016,1.1999999,
,,,3.08400011,1.2800000,
,,,3.08800006,1.2800000,
,,,3.09200025,1.2800000,
,,,3.09600019,1.3600000,
