quinto.csv

Record Length,2500,Points,0.0,1.3199999,
Sample Interval,4.00000019E-3,s,4.00000019E-3,1.3199999,
Trigger Point,0.0,Samples,8.000000380E-3,1.3199999,
,,,12.0000001E-3,1.3199999,
,,,16.0000008E-3,1.3199999,
,,,20.0000014E-3,1.3199999,
Source,CH1,,24.00000021E-3,1.3199999,
Vertical Units,Volts,,28.00000086E-3,1.3199999,
Vertical Scale,999.999977648E-3,,32.00000152E-3,1.3199999,
Vertical Offset,0,,36.00000218E-3,1.3199999,
Horizontal Units,s,,40.00000283E-3,1.3199999,
Horizontal Scale,1.0000000,,44.00000349E-3,1.3199999,
Pt Fmt,Y,,48.00000042E-3,1.3199999,
Yzero,0.0,,52.00000107E-3,1.3199999,
Probe Atten,1.000000,,56.000001729E-3,1.3199999,
,,,60.000002384E-3,1.3199999,
Note,TBS 1102B-EDU - 6:59:06 p. m.   29/02/2024,,64.000003040E-3,1.3199999,
,,,68.000003695E-3,1.3199999,
,,,72.000004351E-3,1.2800000,
,,,76.000005007E-3,1.3199999,
,,,80.000005662E-3,1.3199999,
,,,84.000006318E-3,1.3199999,
,,,88.000006974E-3,1.3199999,
,,,92.000007629E-3,1.3199999,
,,,96.000000834E-3,1.2800000,
,,,100.0000015E-3,1.3199999,
,,,104.0000021E-3,1.3199999,
,,,108.0000028E-3,1.3199999,
,,,112.0000035E-3,1.3199999,
,,,116.0000041E-3,1.3199999,
,,,120.0000048E-3,1.3199999,
,,,124.0000054E-3,1.3199999,
,,,128.0000061E-3,1.3199999,
,,,131.9999993E-3,1.3199999,
,,,136.0000074E-3,1.2800000,
,,,140.0000006E-3,1.3199999,
,,,144.0000087E-3,1.3199999,
,,,148.0000019E-3,1.3199999,
,,,152.00001001E-3,1.3199999,
,,,156.00000322E-3,1.2800000,
,,,160.00001132E-3,1.3199999,
,,,164.00000453E-3,1.3199999,
,,,168.00001264E-3,1.3199999,
,,,172.00000584E-3,1.3199999,
,,,176.00001395E-3,1.3199999,
,,,180.00000715E-3,1.3199999,
,,,184.00001526E-3,1.3199999,
,,,188.00000846E-3,1.3199999,
,,,192.00000167E-3,1.3199999,
,,,196.00000978E-3,1.3199999,
,,,200.00000298E-3,1.3199999,
,,,204.00001109E-3,1.3199999,
,,,208.00000429E-3,1.3199999,
,,,212.00001240E-3,1.3199999,
,,,216.00000560E-3,1.3199999,
,,,220.00001371E-3,1.3199999,
,,,224.00000691E-3,1.3199999,
,,,228.00001502E-3,1.3199999,
,,,232.00000823E-3,1.3199999,
,,,236.00001633E-3,1.3199999,
,,,240.00000954E-3,1.3199999,
,,,244.00001764E-3,1.3199999,
,,,248.00001085E-3,1.3199999,
,,,252.00000405E-3,1.3199999,
,,,256.00001216E-3,1.2800000,
,,,260.00002027E-3,1.3199999,
,,,263.99999857E-3,1.2800000,
,,,268.00000668E-3,1.3199999,
,,,272.00001478E-3,1.2800000,
,,,276.00002289E-3,1.3199999,
,,,280.00000119E-3,1.3199999,
,,,284.00000930E-3,1.3199999,
,,,288.00001740E-3,1.3199999,
,,,292.00002551E-3,1.3199999,
,,,296.00000381E-3,1.3199999,
,,,300.00001192E-3,1.3199999,
,,,304.00002003E-3,1.3199999,
,,,308.00002813E-3,1.2800000,
,,,312.00000644E-3,1.3199999,
,,,316.00001454E-3,1.3199999,
,,,320.00002265E-3,1.3199999,
,,,324.00000095E-3,1.3199999,
,,,328.00000906E-3,1.3199999,
,,,332.00001717E-3,1.3199999,
,,,336.00002527E-3,1.2800000,
,,,340.00000358E-3,1.3199999,
,,,344.00001168E-3,1.3199999,
,,,348.00001979E-3,1.3199999,
,,,352.00002789E-3,1.3199999,
,,,356.00000620E-3,1.3199999,
,,,360.00001431E-3,1.3199999,
,,,364.00002241E-3,1.3199999,
,,,368.00003052E-3,1.3199999,
,,,372.00000882E-3,1.3199999,
,,,376.00001693E-3,1.3199999,
,,,380.00002503E-3,1.3199999,
,,,384.00000334E-3,1.3199999,
,,,388.00001144E-3,1.3199999,
,,,392.00001955E-3,1.3199999,
,,,396.00002766E-3,1.3199999,
,,,400.00000596E-3,1.2800000,
,,,404.000014067E-3,1.3199999,
,,,408.000022173E-3,1.3199999,
,,,412.000030279E-3,1.3199999,
,,,416.000008583E-3,1.3199999,
,,,420.000016689E-3,1.3199999,
,,,424.000024796E-3,1.3199999,
,,,428.000032902E-3,1.3199999,
,,,432.000011206E-3,1.3199999,
,,,436.000019312E-3,1.3199999,
,,,440.000027418E-3,1.2800000,
,,,444.000035524E-3,1.3199999,
,,,448.000013828E-3,1.3199999,
,,,452.000021935E-3,1.3199999,
,,,456.000030041E-3,1.3199999,
,,,460.000008345E-3,1.3199999,
,,,464.000016451E-3,1.3199999,
,,,468.000024557E-3,1.3199999,
,,,472.000032663E-3,1.2800000,
,,,476.000010967E-3,1.3199999,
,,,480.000019073E-3,1.3199999,
,,,484.000027180E-3,1.3199999,
,,,488.000035286E-3,1.3199999,
,,,492.000013590E-3,1.3199999,
,,,496.000021696E-3,1.2800000,
,,,500.000000000E-3,1.3199999,
,,,504.000008106E-3,1.3199999,
,,,508.000016212E-3,1.2800000,
,,,512.000024319E-3,1.3199999,
,,,516.000032425E-3,1.3199999,
,,,520.000040531E-3,1.3199999,
,,,524.000048637E-3,1.3199999,
,,,527.999997139E-3,1.3199999,
,,,532.000005245E-3,1.3199999,
,,,536.000013351E-3,1.3199999,
,,,540.000021458E-3,1.3199999,
,,,544.000029564E-3,1.3199999,
,,,548.000037670E-3,1.3199999,
,,,552.000045776E-3,1.3199999,
,,,556.000053883E-3,1.3199999,
,,,560.000002384E-3,1.2800000,
,,,564.000010490E-3,1.2800000,
,,,568.000018597E-3,1.3199999,
,,,572.000026703E-3,1.3199999,
,,,576.000034809E-3,1.3199999,
,,,580.000042915E-3,1.3199999,
,,,584.000051022E-3,1.2800000,
,,,587.999999523E-3,1.3199999,
,,,592.000007629E-3,1.3199999,
,,,596.000015736E-3,1.3199999,
,,,600.000023842E-3,1.3199999,
,,,604.000031948E-3,1.2800000,
,,,608.000040054E-3,1.2800000,
,,,612.000048161E-3,1.3199999,
,,,616.000056267E-3,1.3199999,
,,,620.000004768E-3,1.3199999,
,,,624.000012875E-3,1.3199999,
,,,628.000020981E-3,1.3199999,
,,,632.000029087E-3,1.3199999,
,,,636.000037193E-3,1.3199999,
,,,640.000045300E-3,1.3199999,
,,,644.000053406E-3,1.3199999,
,,,648.000001907E-3,1.3199999,
,,,652.000010014E-3,1.2800000,
,,,656.000018120E-3,1.3199999,
,,,660.000026226E-3,1.3199999,
,,,664.000034332E-3,1.3199999,
,,,668.000042439E-3,1.3199999,
,,,672.000050545E-3,1.3199999,
,,,676.000058651E-3,1.3199999,
,,,680.000007153E-3,1.3199999,
,,,684.000015259E-3,1.3199999,
,,,688.000023365E-3,1.3199999,
,,,692.000031471E-3,1.3199999,
,,,696.000039577E-3,1.3199999,
,,,700.000047684E-3,1.3199999,
,,,704.000055790E-3,1.2800000,
,,,708.000004292E-3,1.3199999,
,,,712.000012398E-3,1.3199999,
,,,716.000020504E-3,1.3199999,
,,,720.000028610E-3,1.3199999,
,,,724.000036716E-3,1.3199999,
,,,728.000044823E-3,1.3199999,
,,,732.000052929E-3,1.3199999,
,,,736.000061035E-3,1.3199999,
,,,740.000009537E-3,1.3199999,
,,,744.000017643E-3,1.3199999,
,,,748.000025749E-3,1.3199999,
,,,752.000033855E-3,1.3199999,
,,,756.000041962E-3,1.3199999,
,,,760.000050068E-3,1.2800000,
,,,764.000058174E-3,1.3199999,
,,,768.000006676E-3,1.3199999,
,,,772.000014782E-3,1.3199999,
,,,776.000022888E-3,1.3199999,
,,,780.000030994E-3,1.3199999,
,,,784.000039101E-3,1.2800000,
,,,788.000047207E-3,1.3199999,
,,,792.000055313E-3,1.3199999,
,,,796.000063419E-3,1.3199999,
,,,800.000011921E-3,1.3199999,
,,,804.000020027E-3,1.3199999,
,,,808.000028133E-3,1.3199999,
,,,812.000036240E-3,1.3199999,
,,,816.000044346E-3,1.2800000,
,,,820.000052452E-3,1.2800000,
,,,824.000060558E-3,1.3199999,
,,,828.000068665E-3,1.3199999,
,,,832.000017166E-3,1.3199999,
,,,836.000025272E-3,1.3199999,
,,,840.000033379E-3,1.3199999,
,,,844.000041485E-3,1.3199999,
,,,848.000049591E-3,1.3199999,
,,,852.000057697E-3,1.3199999,
,,,856.000065804E-3,1.3199999,
,,,860.000014305E-3,1.2800000,
,,,864.000022411E-3,1.3199999,
,,,868.000030518E-3,1.3199999,
,,,872.000038624E-3,1.3199999,
,,,876.000046730E-3,1.3199999,
,,,880.000054836E-3,1.3199999,
,,,884.000062943E-3,1.3199999,
,,,888.000071049E-3,1.3199999,
,,,892.000019550E-3,1.3199999,
,,,896.000027657E-3,1.3199999,
,,,900.000035763E-3,1.3199999,
,,,904.000043869E-3,1.3199999,
,,,908.000051975E-3,1.3199999,
,,,912.000060081E-3,1.3199999,
,,,916.000068188E-3,1.3199999,
,,,920.000016689E-3,1.3199999,
,,,924.000024796E-3,1.3199999,
,,,928.000032902E-3,1.3199999,
,,,932.000041008E-3,1.3199999,
,,,936.000049114E-3,1.3199999,
,,,940.000057220E-3,1.3199999,
,,,944.000065327E-3,1.3199999,
,,,948.000073433E-3,1.3199999,
,,,952.000021935E-3,1.3199999,
,,,956.000030041E-3,1.3199999,
,,,960.000038147E-3,1.3199999,
,,,964.000046253E-3,1.3199999,
,,,968.000054359E-3,1.3199999,
,,,972.000062466E-3,1.3199999,
,,,976.000070572E-3,1.3199999,
,,,980.000019073E-3,1.3199999,
,,,984.000027180E-3,1.2800000,
,,,988.000035286E-3,1.3199999,
,,,992.000043392E-3,1.3199999,
,,,996.000051498E-3,1.3199999,
,,,1.000000,1.3199999,
,,,1.0040001,1.3199999,
,,,1.0080000,1.3199999,
,,,1.0120001,1.3199999,
,,,1.0160000,1.3199999,
,,,1.0200001,1.2800000,
,,,1.0240000,1.3199999,
,,,1.0280000,1.3199999,
,,,1.0320001,1.3199999,
,,,1.0360000,1.3199999,
,,,1.0400001,1.3199999,
,,,1.0440000,1.3199999,
,,,1.0480001,1.3199999,
,,,1.0520000,1.2800000,
,,,1.0560000,1.3199999,
,,,1.0600001,1.3199999,
,,,1.0640000,1.3199999,
,,,1.0680001,1.2800000,
,,,1.0720000,1.3199999,
,,,1.0760001,1.2800000,
,,,1.0800000,1.3199999,
,,,1.0840001,1.3199999,
,,,1.0880001,1.3199999,
,,,1.0920000,1.2800000,
,,,1.0960001,1.3199999,
,,,1.1000000,1.2800000,
,,,1.1040001,1.3199999,
,,,1.1080000,1.3199999,
,,,1.1120001,1.3199999,
,,,1.1160001,1.3199999,
,,,1.1200000,1.3199999,
,,,1.1240001,1.3199999,
,,,1.1280000,1.3199999,
,,,1.1320001,1.3199999,
,,,1.1360000,1.3199999,
,,,1.1400001,1.3199999,
,,,1.1440001,1.3199999,
,,,1.1480000,1.3199999,
,,,1.1520001,1.2800000,
,,,1.1560000,1.3199999,
,,,1.1600001,1.3199999,
,,,1.1640000,1.2800000,
,,,1.1680001,1.3199999,
,,,1.1720001,1.3199999,
,,,1.1760000,1.2800000,
,,,1.1800001,1.3199999,
,,,1.1840000,1.3199999,
,,,1.1880001,1.3199999,
,,,1.1920000,1.2800000,
,,,1.1960001,1.3199999,
,,,1.2000000,1.3199999,
,,,1.2040001,1.3199999,
,,,1.2080001,1.3199999,
,,,1.2120000,1.3199999,
,,,1.2160001,1.3199999,
,,,1.2200000,1.3199999,
,,,1.2240001,1.3199999,
,,,1.2280000,1.3199999,
,,,1.2320001,1.2800000,
,,,1.2360001,1.2800000,
,,,1.2400000,1.2800000,
,,,1.2440001,1.3199999,
,,,1.2480000,1.3199999,
,,,1.2520001,1.3199999,
,,,1.2560000,1.3199999,
,,,1.2600001,1.2800000,
,,,1.2640001,1.3199999,
,,,1.2680000,1.3199999,
,,,1.2720001,1.3199999,
,,,1.2760000,1.2800000,
,,,1.2800001,1.3199999,
,,,1.2840000,1.3199999,
,,,1.2880001,1.2800000,
,,,1.2920001,1.2800000,
,,,1.2960000,1.3199999,
,,,1.3000001,1.3199999,
,,,1.3040000,1.2800000,
,,,1.3080001,1.2800000,
,,,1.3120000,1.2800000,
,,,1.3160001,1.2800000,
,,,1.3200001,1.2800000,
,,,1.3240001,1.2800000,
,,,1.3280001,1.2400000,
,,,1.3320000,1.2400000,
,,,1.3360001,1.2400000,
,,,1.3400000,1.2400000,
,,,1.3440001,1.2400000,
,,,1.3480000,1.1999999,
,,,1.3520001,1.2400000,
,,,1.3560001,1.1999999,
,,,1.3600000,1.1999999,
,,,1.3640001,1.1999999,
,,,1.3680000,1.1999999,
,,,1.3720001,1.1600000,
,,,1.3760000,1.1600000,
,,,1.3800001,1.1200000,
,,,1.3840001,1.1200000,
,,,1.3880000,1.1200000,
,,,1.3920001,1.0799999,
,,,1.3960000,1.0799999,
,,,1.4000001,1.0400000,
,,,1.4040000,1.0400000,
,,,1.4080001,1.0400000,
,,,1.4120001,1.000000,
,,,1.4160000,1.000000,
,,,1.4200001,1.000000,
,,,1.4240000,959.999978542E-3,
,,,1.4280001,959.999978542E-3,
,,,1.4320000,959.999978542E-3,
,,,1.4360001,919.999957085E-3,
,,,1.4400001,919.999957085E-3,
,,,1.4440001,879.999995232E-3,
,,,1.4480001,879.999995232E-3,
,,,1.4520000,839.999973774E-3,
,,,1.4560001,839.999973774E-3,
,,,1.4600000,839.999973774E-3,
,,,1.4640001,799.999952316E-3,
,,,1.4680001,799.999952316E-3,
,,,1.4720001,759.999990463E-3,
,,,1.4760001,719.999969006E-3,
,,,1.4800000,680.000007153E-3,
,,,1.4840001,680.000007153E-3,
,,,1.4880000,680.000007153E-3,
,,,1.4920001,639.999985695E-3,
,,,1.4960001,639.999985695E-3,
,,,1.5000001,639.999985695E-3,
,,,1.5040001,599.999964237E-3,
,,,1.5080000,560.000002384E-3,
,,,1.5120001,560.000002384E-3,
,,,1.5160000,519.999980927E-3,
,,,1.5200001,519.999980927E-3,
,,,1.5240000,479.999989271E-3,
,,,1.5280001,479.999989271E-3,
,,,1.5320001,439.999997616E-3,
,,,1.5360000,399.99997616E-3,
,,,1.5400001,399.99997616E-3,
,,,1.5440000,359.99998450E-3,
,,,1.5480001,359.99998450E-3,
,,,1.5520000,319.99999285E-3,
,,,1.5560001,280.00000119E-3,
,,,1.5600001,280.00000119E-3,
,,,1.5640001,280.00000119E-3,
,,,1.5680001,239.99999464E-3,
,,,1.5720000,199.99998808E-3,
,,,1.5760001,199.99998808E-3,
,,,1.5800000,159.99999642E-3,
,,,1.5840001,159.99999642E-3,
,,,1.5880001,159.99999642E-3,
,,,1.5920001,119.9999973E-3,
,,,1.5960001,119.9999973E-3,
,,,1.6000000,79.999998212E-3,
,,,1.6040001,39.99999911E-3,
,,,1.6080000,39.99999911E-3,
,,,1.6120001,39.99999911E-3,
,,,1.6160001,0.0,
,,,1.6200001,-39.99999911E-3,
,,,1.6240001,-39.99999911E-3,
,,,1.6280000,-39.99999911E-3,
,,,1.6320001,-119.9999973E-3,
,,,1.6360000,-119.9999973E-3,
,,,1.6400001,-159.99999642E-3,
,,,1.6440001,-199.99998808E-3,
,,,1.6480001,-159.99999642E-3,
,,,1.6520001,-159.99999642E-3,
,,,1.6560001,-199.99998808E-3,
,,,1.6600001,-239.99999464E-3,
,,,1.6640000,-239.99999464E-3,
,,,1.6680001,-280.00000119E-3,
,,,1.6720001,-280.00000119E-3,
,,,1.6760001,-319.99999285E-3,
,,,1.6800001,-319.99999285E-3,
,,,1.6840001,-319.99999285E-3,
,,,1.6880001,-359.99998450E-3,
,,,1.6920000,-359.99998450E-3,
,,,1.6960001,-399.99997616E-3,
,,,1.7000000,-399.99997616E-3,
,,,1.7040001,-439.999997616E-3,
,,,1.7080001,-439.999997616E-3,
,,,1.7120001,-439.999997616E-3,
,,,1.7160001,-439.999997616E-3,
,,,1.7200000,-479.999989271E-3,
,,,1.7240001,-479.999989271E-3,
,,,1.7280000,-479.999989271E-3,
,,,1.7320001,-519.999980927E-3,
,,,1.7360001,-519.999980927E-3,
,,,1.7400001,-560.000002384E-3,
,,,1.7440001,-560.000002384E-3,
,,,1.7480000,-560.000002384E-3,
,,,1.7520001,-599.999964237E-3,
,,,1.7560000,-599.999964237E-3,
,,,1.7600001,-599.999964237E-3,
,,,1.7640001,-599.999964237E-3,
,,,1.7680001,-639.999985695E-3,
,,,1.7720001,-639.999985695E-3,
,,,1.7760001,-639.999985695E-3,
,,,1.7800001,-639.999985695E-3,
,,,1.7840000,-680.000007153E-3,
,,,1.7880001,-680.000007153E-3,
,,,1.7920001,-639.999985695E-3,
,,,1.7960001,-680.000007153E-3,
,,,1.8000001,-680.000007153E-3,
,,,1.8040001,-680.000007153E-3,
,,,1.8080001,-680.000007153E-3,
,,,1.8120000,-680.000007153E-3,
,,,1.8160001,-680.000007153E-3,
,,,1.8200001,-680.000007153E-3,
,,,1.8240001,-680.000007153E-3,
,,,1.8280001,-719.999969006E-3,
,,,1.8320001,-719.999969006E-3,
,,,1.8360001,-680.000007153E-3,
,,,1.8400000,-759.999990463E-3,
,,,1.8440001,-719.999969006E-3,
,,,1.8480000,-719.999969006E-3,
,,,1.8520001,-719.999969006E-3,
,,,1.8560001,-719.999969006E-3,
,,,1.8600001,-719.999969006E-3,
,,,1.8640001,-719.999969006E-3,
,,,1.8680000,-719.999969006E-3,
,,,1.8720001,-719.999969006E-3,
,,,1.8760000,-759.999990463E-3,
,,,1.8800001,-719.999969006E-3,
,,,1.8840001,-719.999969006E-3,
,,,1.8880001,-759.999990463E-3,
,,,1.8920001,-719.999969006E-3,
,,,1.8960001,-759.999990463E-3,
,,,1.9000001,-719.999969006E-3,
,,,1.9040000,-719.999969006E-3,
,,,1.9080001,-719.999969006E-3,
,,,1.9120001,-719.999969006E-3,
,,,1.9160001,-680.000007153E-3,
,,,1.9200001,-680.000007153E-3,
,,,1.9240001,-680.000007153E-3,
,,,1.9280001,-680.000007153E-3,
,,,1.9320000,-680.000007153E-3,
,,,1.9360001,-680.000007153E-3,
,,,1.9400001,-680.000007153E-3,
,,,1.9440001,-680.000007153E-3,
,,,1.9480001,-680.000007153E-3,
,,,1.9520001,-680.000007153E-3,
,,,1.9560001,-680.000007153E-3,
,,,1.9600000,-639.999985695E-3,
,,,1.9640001,-639.999985695E-3,
,,,1.9680001,-639.999985695E-3,
,,,1.9720001,-639.999985695E-3,
,,,1.9760001,-639.999985695E-3,
,,,1.9800001,-599.999964237E-3,
,,,1.9840001,-599.999964237E-3,
,,,1.9880000,-599.999964237E-3,
,,,1.9920001,-599.999964237E-3,
,,,1.9960001,-599.999964237E-3,
,,,2.0000000,-599.999964237E-3,
,,,2.0040002,-599.999964237E-3,
,,,2.0080001,-560.000002384E-3,
,,,2.0120001,-560.000002384E-3,
,,,2.0160000,-519.999980927E-3,
,,,2.0200000,-519.999980927E-3,
,,,2.0240002,-519.999980927E-3,
,,,2.0280001,-519.999980927E-3,
,,,2.0320001,-479.999989271E-3,
,,,2.0360000,-519.999980927E-3,
,,,2.0400002,-479.999989271E-3,
,,,2.0440001,-479.999989271E-3,
,,,2.0480001,-479.999989271E-3,
,,,2.0520000,-439.999997616E-3,
,,,2.0560000,-439.999997616E-3,
,,,2.0600002,-399.99997616E-3,
,,,2.0640001,-399.99997616E-3,
,,,2.0680001,-399.99997616E-3,
,,,2.0720000,-359.99998450E-3,
,,,2.0760002,-359.99998450E-3,
,,,2.0800002,-359.99998450E-3,
,,,2.0840001,-359.99998450E-3,
,,,2.0880001,-319.99999285E-3,
,,,2.0920000,-319.99999285E-3,
,,,2.0960002,-319.99999285E-3,
,,,2.1000001,-280.00000119E-3,
,,,2.1040001,-280.00000119E-3,
,,,2.1080000,-239.99999464E-3,
,,,2.1120000,-239.99999464E-3,
,,,2.1160002,-239.99999464E-3,
,,,2.1200001,-239.99999464E-3,
,,,2.1240001,-199.99998808E-3,
,,,2.1280000,-199.99998808E-3,
,,,2.1320002,-199.99998808E-3,
,,,2.1360002,-159.99999642E-3,
,,,2.1400001,-159.99999642E-3,
,,,2.1440001,-159.99999642E-3,
,,,2.1480000,-119.9999973E-3,
,,,2.1520002,-119.9999973E-3,
,,,2.1560001,-79.999998212E-3,
,,,2.1600001,-79.999998212E-3,
,,,2.1640000,-79.999998212E-3,
,,,2.1680002,-39.99999911E-3,
,,,2.1720002,-39.99999911E-3,
,,,2.1760001,-39.99999911E-3,
,,,2.1800001,0.0,
,,,2.1840000,0.0,
,,,2.1880002,0.0,
,,,2.1920002,0.0,
,,,2.1960001,39.99999911E-3,
,,,2.2000000,39.99999911E-3,
,,,2.2040000,79.999998212E-3,
,,,2.2080002,79.999998212E-3,
,,,2.2120001,79.999998212E-3,
,,,2.2160001,79.999998212E-3,
,,,2.2200000,119.9999973E-3,
,,,2.2240002,119.9999973E-3,
,,,2.2280002,119.9999973E-3,
,,,2.2320001,119.9999973E-3,
,,,2.2360001,119.9999973E-3,
,,,2.2400000,159.99999642E-3,
,,,2.2440002,159.99999642E-3,
,,,2.2480001,159.99999642E-3,
,,,2.2520001,159.99999642E-3,
,,,2.2560000,199.99998808E-3,
,,,2.2600000,199.99998808E-3,
,,,2.2640002,199.99998808E-3,
,,,2.2680001,239.99999464E-3,
,,,2.2720001,199.99998808E-3,
,,,2.2760000,239.99999464E-3,
,,,2.2800002,239.99999464E-3,
,,,2.2840002,239.99999464E-3,
,,,2.2880001,280.00000119E-3,
,,,2.2920001,280.00000119E-3,
,,,2.2960000,280.00000119E-3,
,,,2.3000002,319.99999285E-3,
,,,2.3040001,319.99999285E-3,
,,,2.3080001,319.99999285E-3,
,,,2.3120000,319.99999285E-3,
,,,2.3160002,319.99999285E-3,
,,,2.3200002,319.99999285E-3,
,,,2.3240001,359.99998450E-3,
,,,2.3280001,359.99998450E-3,
,,,2.3320000,359.99998450E-3,
,,,2.3360002,359.99998450E-3,
,,,2.3400002,359.99998450E-3,
,,,2.3440001,359.99998450E-3,
,,,2.3480000,399.99997616E-3,
,,,2.3520000,399.99997616E-3,
,,,2.3560002,399.99997616E-3,
,,,2.3600001,359.99998450E-3,
,,,2.3640001,399.99997616E-3,
,,,2.3680000,399.99997616E-3,
,,,2.3720002,439.999997616E-3,
,,,2.3760002,399.99997616E-3,
,,,2.3800001,439.999997616E-3,
,,,2.3840001,439.999997616E-3,
,,,2.3880000,399.99997616E-3,
,,,2.3920002,439.999997616E-3,
,,,2.3960001,439.999997616E-3,
,,,2.4000001,439.999997616E-3,
,,,2.4040000,479.999989271E-3,
,,,2.4080002,439.999997616E-3,
,,,2.4120002,439.999997616E-3,
,,,2.4160001,439.999997616E-3,
,,,2.4200001,439.999997616E-3,
,,,2.4240000,439.999997616E-3,
,,,2.4280002,439.999997616E-3,
,,,2.4320002,439.999997616E-3,
,,,2.4360001,439.999997616E-3,
,,,2.4400001,479.999989271E-3,
,,,2.4440000,479.999989271E-3,
,,,2.4480002,479.999989271E-3,
,,,2.4520001,479.999989271E-3,
,,,2.4560001,439.999997616E-3,
,,,2.4600000,439.999997616E-3,
,,,2.4640002,479.999989271E-3,
,,,2.4680002,479.999989271E-3,
,,,2.4720001,439.999997616E-3,
,,,2.4760001,439.999997616E-3,
,,,2.4800000,479.999989271E-3,
,,,2.4840002,439.999997616E-3,
,,,2.4880002,439.999997616E-3,
,,,2.4920001,479.999989271E-3,
,,,2.4960001,439.999997616E-3,
,,,2.5000000,439.999997616E-3,
,,,2.5040002,439.999997616E-3,
,,,2.5080001,439.999997616E-3,
,,,2.5120001,439.999997616E-3,
,,,2.5160000,439.999997616E-3,
,,,2.5200002,439.999997616E-3,
,,,2.5240002,439.999997616E-3,
,,,2.5280001,439.999997616E-3,
,,,2.5320001,399.99997616E-3,
,,,2.5360000,439.999997616E-3,
,,,2.5400002,399.99997616E-3,
,,,2.5440001,439.999997616E-3,
,,,2.5480001,439.999997616E-3,
,,,2.5520000,439.999997616E-3,
,,,2.5560002,399.99997616E-3,
,,,2.5600002,399.99997616E-3,
,,,2.5640001,399.99997616E-3,
,,,2.5680001,359.99998450E-3,
,,,2.5720000,399.99997616E-3,
,,,2.5760002,399.99997616E-3,
,,,2.5800002,359.99998450E-3,
,,,2.5840001,359.99998450E-3,
,,,2.5880001,359.99998450E-3,
,,,2.5920000,359.99998450E-3,
,,,2.5960002,359.99998450E-3,
,,,2.6000001,319.99999285E-3,
,,,2.6040001,319.99999285E-3,
,,,2.6080000,359.99998450E-3,
,,,2.6120002,319.99999285E-3,
,,,2.6160002,319.99999285E-3,
,,,2.6200001,319.99999285E-3,
,,,2.6240001,280.00000119E-3,
,,,2.6280000,319.99999285E-3,
,,,2.6320002,280.00000119E-3,
,,,2.6360002,280.00000119E-3,
,,,2.6400001,239.99999464E-3,
,,,2.6440001,280.00000119E-3,
,,,2.6480002,239.99999464E-3,
,,,2.6520002,239.99999464E-3,
,,,2.6560001,239.99999464E-3,
,,,2.6600001,239.99999464E-3,
,,,2.6640000,239.99999464E-3,
,,,2.6680002,199.99998808E-3,
